module ft

go 1.15

require (
	github.com/golang/protobuf v1.4.1
	github.com/mitchellh/go-homedir v1.1.0
	github.com/spf13/cobra v1.0.0
	github.com/spf13/pflag v1.0.5 // indirect
	github.com/spf13/viper v1.4.0
	google.golang.org/protobuf v1.25.0
)
